{
  "destination": "../metalsite",
  "metadata": {
    "title": "Perspetivas em Bioinformática",
    "description": "Built with Metalsmith, hosted by GitLab Pages."
  },
  "plugins": {
    "metalsmith-markdown": {},
    "metalsmith-permalinks": {
      "pattern": ":title"
    },
    "metalsmith-layouts": {
      "engine": "handlebars"
    }
  }
}
